<?xml version="1.0" encoding="utf-8"?>
<!-- Generator: Adobe Illustrator 24.0.1, SVG Export Plug-In . SVG Version: 6.00 Build 0)  -->
<svg version="1.1" id="Capa_1" xmlns="http://www.w3.org/2000/svg" xmlns:xlink="http://www.w3.org/1999/xlink" x="0px" y="0px"
	 viewBox="0 0 25 25" style="enable-background:new 0 0 25 25;" xml:space="preserve">
<style type="text/css">
	.st0{display:none;}
	.st1{display:inline;fill:#005CFF;}
	.st2{fill:none;stroke:#005CFF;stroke-width:2.5;stroke-miterlimit:10;}
	.st3{fill:none;stroke:#005CFF;stroke-width:2.5;stroke-linecap:round;stroke-miterlimit:10;}
</style>
<g id="Layer_1" class="st0">
	<path id="Icon_material-person-outline" class="st1" d="M12.5-13c4.4,0,8,3.6,8,8s-3.6,8-8,8s-8-3.6-8-8l0,0
		C4.5-9.4,8.1-13,12.5-13 M12.5,26.4c10.8,0,22.2,5.3,22.2,7.6v4H-9.7v-4C-9.7,31.7,1.7,26.4,12.5,26.4 M12.5-22.5
		C2.8-22.5-5-14.7-5-5s7.8,17.5,17.5,17.5S30,4.7,30-5S22.2-22.5,12.5-22.5z M12.5,16.9c-11.7,0-35,5.9-35,17.5v13.1h70V34.4
		C47.5,22.7,24.2,16.9,12.5,16.9z"/>
</g>
<g>
	<path class="st2" d="M19.4,22.8H5.6c-1.7,0-3.1-1.4-3.1-3.1v-9.3c0-0.4,0.4-0.8,0.8-0.8h18.4c0.4,0,0.8,0.4,0.8,0.8v9.3
		C22.5,21.4,21.1,22.8,19.4,22.8z"/>
	<path class="st3" d="M17.4,11.6V7.1c0-2.7-2.2-4.9-4.9-4.9S7.6,4.4,7.6,7.1v4.4"/>
</g>
</svg>
